﻿


EVENT   1
 PAGE   1
  // condition: switch 32 is ON
  // condition: variable 126 >= 0
  0()
 PAGE   2
  // condition: switch 32 is ON
  // condition: variable 126 >= 1
  0()
 PAGE   3
  // condition: switch 32 is ON
  // condition: variable 126 >= 2
  0()
 PAGE   4
  // condition: switch 32 is ON
  // condition: variable 126 >= 3
  0()
 PAGE   5
  // condition: switch 32 is ON
  // condition: variable 126 >= 4
  0()



EVENT   2
 PAGE   1
  // condition: switch 31 is ON
  0()



EVENT   3
 PAGE   1
  ShowMessageFace("",0,0,2,1)
  ShowMessage("次のフロアに進みますか？")
  ShowChoices(strings("まだ行かない","次のフロアに進む"),1)
  IfPlayerPicksChoice(0,null)
   205(-1,bytes(0x04,0x08,0x6f,0x3a,0x13,0x52,0x50,0x47,0x3a,0x3a,0x4d,0x6f,0x76,0x65,0x52,0x6f,0x75,0x74,0x65,0x09,0x3a,0x0c,0x40,0x72,0x65,0x70,0x65,0x61,0x74,0x46,0x3a,0x0f,0x40,0x73,0x6b,0x69,0x70,0x70,0x61,0x62,0x6c,0x65,0x46,0x3a,0x0a,0x40,0x77,0x61,0x69,0x74,0x54,0x3a,0x0a,0x40,0x6c,0x69,0x73,0x74,0x5b,0x07,0x6f,0x3a,0x15,0x52,0x50,0x47,0x3a,0x3a,0x4d,0x6f,0x76,0x65,0x43,0x6f,0x6d,0x6d,0x61,0x6e,0x64,0x07,0x3a,0x0a,0x40,0x63,0x6f,0x64,0x65,0x69,0x09,0x3a,0x10,0x40,0x70,0x61,0x72,0x61,0x6d,0x65,0x74,0x65,0x72,0x73,0x5b,0x00,0x6f,0x3b,0x0a,0x07,0x3b,0x0b,0x69,0x00,0x3b,0x0c,0x5b,0x00))
   EndEventProcessing()
   0()
  IfPlayerPicksChoice(1,null)
   ChangeVariable(121,121,2,0,1)
   RunCommonEvent(901)
   EndEventProcessing()
   0()
  404()
  0()



EVENT   4
 PAGE   1
  // condition: variable 126 >= 0
  ShowSpeechBalloon(0,1,false)
  205(0,bytes(0x04,0x08,0x6f,0x3a,0x13,0x52,0x50,0x47,0x3a,0x3a,0x4d,0x6f,0x76,0x65,0x52,0x6f,0x75,0x74,0x65,0x09,0x3a,0x0c,0x40,0x72,0x65,0x70,0x65,0x61,0x74,0x46,0x3a,0x0f,0x40,0x73,0x6b,0x69,0x70,0x70,0x61,0x62,0x6c,0x65,0x46,0x3a,0x0a,0x40,0x77,0x61,0x69,0x74,0x46,0x3a,0x0a,0x40,0x6c,0x69,0x73,0x74,0x5b,0x0c,0x6f,0x3a,0x15,0x52,0x50,0x47,0x3a,0x3a,0x4d,0x6f,0x76,0x65,0x43,0x6f,0x6d,0x6d,0x61,0x6e,0x64,0x07,0x3a,0x0a,0x40,0x63,0x6f,0x64,0x65,0x69,0x15,0x3a,0x10,0x40,0x70,0x61,0x72,0x61,0x6d,0x65,0x74,0x65,0x72,0x73,0x5b,0x00,0x6f,0x3b,0x0a,0x07,0x3b,0x0b,0x69,0x28,0x3b,0x0c,0x5b,0x00,0x6f,0x3b,0x0a,0x07,0x3b,0x0b,0x69,0x2a,0x3b,0x0c,0x5b,0x00,0x6f,0x3b,0x0a,0x07,0x3b,0x0b,0x69,0x09,0x3b,0x0c,0x5b,0x00,0x6f,0x3b,0x0a,0x07,0x3b,0x0b,0x69,0x2c,0x3b,0x0c,0x5b,0x00,0x6f,0x3b,0x0a,0x07,0x3b,0x0b,0x69,0x31,0x3b,0x0c,0x5b,0x06,0x6f,0x3a,0x0c,0x52,0x50,0x47,0x3a,0x3a,0x53,0x45,0x08,0x3a,0x0a,0x40,0x6e,0x61,0x6d,0x65,0x49,0x22,0x0b,0x57,0x61,0x74,0x65,0x72,0x31,0x06,0x3a,0x06,0x45,0x54,0x3a,0x0b,0x40,0x70,0x69,0x74,0x63,0x68,0x69,0x69,0x3a,0x0c,0x40,0x76,0x6f,0x6c,0x75,0x6d,0x65,0x69,0x55,0x6f,0x3b,0x0a,0x07,0x3b,0x0b,0x69,0x00,0x3b,0x0c,0x5b,0x00))
  ShowMessageFace("lamia_fc1",2,0,2,1)
  ShowMessage("\\n<Ramiア>きゃっ！？")
  ShowMessageFace("",0,0,2,2)
  ShowMessage("ラミアは泉に落ちてしまった！")
  Wait(30)
  205(-1,bytes(0x04,0x08,0x6f,0x3a,0x13,0x52,0x50,0x47,0x3a,0x3a,0x4d,0x6f,0x76,0x65,0x52,0x6f,0x75,0x74,0x65,0x09,0x3a,0x0c,0x40,0x72,0x65,0x70,0x65,0x61,0x74,0x46,0x3a,0x0f,0x40,0x73,0x6b,0x69,0x70,0x70,0x61,0x62,0x6c,0x65,0x46,0x3a,0x0a,0x40,0x77,0x61,0x69,0x74,0x54,0x3a,0x0a,0x40,0x6c,0x69,0x73,0x74,0x5b,0x07,0x6f,0x3a,0x15,0x52,0x50,0x47,0x3a,0x3a,0x4d,0x6f,0x76,0x65,0x43,0x6f,0x6d,0x6d,0x61,0x6e,0x64,0x07,0x3a,0x0a,0x40,0x63,0x6f,0x64,0x65,0x69,0x18,0x3a,0x10,0x40,0x70,0x61,0x72,0x61,0x6d,0x65,0x74,0x65,0x72,0x73,0x5b,0x00,0x6f,0x3b,0x0a,0x07,0x3b,0x0b,0x69,0x00,0x3b,0x0c,0x5b,0x00))
  241(bytes(0x04,0x08,0x6f,0x3a,0x0d,0x52,0x50,0x47,0x3a,0x3a,0x42,0x47,0x4d,0x08,0x3a,0x0a,0x40,0x6e,0x61,0x6d,0x65,0x49,0x22,0x0a,0x69,0x72,0x69,0x61,0x73,0x06,0x3a,0x06,0x45,0x54,0x3a,0x0c,0x40,0x76,0x6f,0x6c,0x75,0x6d,0x65,0x69,0x69,0x3a,0x0b,0x40,0x70,0x69,0x74,0x63,0x68,0x69,0x69))
  212(2,501,false)
  Wait(30)
  ChangeSwitch(31,31,0)
  ShowMessageFace("iriasu_fc1",0,0,2,3)
  ShowMessage("\\n<Ilias>私は泉の女神……")
  ShowMessage("神聖なる泉に、ずいぶんつまらないものを落としたようですね。")
  ChangeSwitch(32,32,0)
  ShowMessageFace("iriasu_fc1",0,0,2,4)
  ShowMessage("\\n<Ilias>あなたが落としたのは、この残念なラミアですか？")
  ShowMessageFace("amira_fc1",0,0,2,5)
  ShowMessage("\\n<Amira>あら、こんにちは。")
  ShowMessage("意外なところで会ったわね。")
  ChangeSwitch(33,33,0)
  ShowMessageFace("iriasu_fc1",0,0,2,6)
  ShowMessage("\\n<Ilias>それとも、普通のラミアですか？")
  ShowMessageFace("lamia_fc1",2,0,2,7)
  ShowMessage("\\n<Ramiア>ちょっと、何なのよこれ！")
  ShowMessage("早く私を助けなさいよー！")
  ChangeSwitch(34,34,0)
  ShowMessageFace("iriasu_fc1",0,0,2,8)
  ShowMessage("\\n<Ilias>もしくは、高価なラミアですか？")
  ShowMessageFace("sirohebisama_fc1",0,0,2,9)
  ShowMessage("\\n<Shirohebi>これは、いったい何事ぞ？")
  ShowMessageFace("iriasu_fc1",0,0,2,10)
  ShowMessage("\\n<Ilias>さあ、正直に答えるのです……")
  ShowMessage("あなたの落としたラミアは、どれですか？")
  ShowChoices(strings("残念なラミア","普通のラミア","高価なラミア"),0)
  IfPlayerPicksChoice(0,null)
   ShowMessageFace("amira_fc1",0,0,2,11)
   ShowMessage("\\n<Amira>私を選ぶなんて感激よー！")
   ShowMessageFace("iriasu_fc1",1,0,2,12)
   ShowMessage("\\n<Ilias>なんと、あなたは謙虚なのですね……")
   ShowMessage("その身を守る、素晴らしい防具を授けましょう。")
   RunCommonEvent(836)
   0()
  IfPlayerPicksChoice(1,null)
   ShowMessageFace("lamia_fc1",0,0,2,13)
   ShowMessage("\\n<Ramiア>そう、それでいいの。")
   ShowMessage("正直に答えてくれて、良かったわ。")
   ShowMessageFace("iriasu_fc1",1,0,2,14)
   ShowMessage("\\n<Ilias>あなたは正直者なのですね……")
   ShowMessage("清き心の持ち主には、素晴らしい武器を授けましょう。")
   RunCommonEvent(831)
   0()
  IfPlayerPicksChoice(2,null)
   ShowMessageFace("sirohebisama_fc1",0,0,2,15)
   ShowMessage("\\n<Shirohebi>なんぞ……？　妾には心当たりがないが……")
   ShowMessageFace("iriasu_fc1",3,0,2,16)
   ShowMessage("\\n<Ilias>嘘を吐きましたね……")
   ShowMessage("欲にまみれたあなたは、苦難の道を辿るでしょう。")
   250(bytes(0x04,0x08,0x6f,0x3a,0x0c,0x52,0x50,0x47,0x3a,0x3a,0x53,0x45,0x08,0x3a,0x0a,0x40,0x6e,0x61,0x6d,0x65,0x49,0x22,0x0e,0x6d,0x6f,0x6e,0x5f,0x64,0x6f,0x77,0x6e,0x34,0x06,0x3a,0x06,0x45,0x54,0x3a,0x0b,0x40,0x70,0x69,0x74,0x63,0x68,0x69,0x69,0x3a,0x0c,0x40,0x76,0x6f,0x6c,0x75,0x6d,0x65,0x69,0x69))
   ShowMessageFace("",0,0,2,17)
   ShowMessage("ダンジョンに登場する敵の強さが上がった！")
   ShowMessageFace("iriasu_fc1",0,0,2,18)
   ShowMessage("\\n<Ilias>しかし、ピンチこそチャンス……")
   ShowMessage("敵の強さが上がった影響で、レア度も上がったようですね。")
   If(1,151,0,0,0)
    ChangeVariable(150,150,1,0,30)
    RunCommonEvent(918)
    RunCommonEvent(919)
    ShowMessageFace("",0,0,2,19)
    ShowMessage("レアポイントが30アップ！")
    ShowMessage("（現在のレアポイント：\\V[150]）")
    0()
   EndIf()
   If(1,151,0,1,1)
    ChangeVariable(150,150,1,0,150)
    RunCommonEvent(918)
    RunCommonEvent(919)
    ShowMessageFace("",0,0,2,20)
    ShowMessage("レアポイントが150アップ！")
    ShowMessage("（現在のレアポイント：\\V[150]）")
    0()
   EndIf()
   0()
  404()
  ShowMessageFace("iriasu_fc1",1,0,2,21)
  ShowMessage("\\n<Ilias>それでは行きなさい、勇者ルカ。")
  ShowMessage("これからも、私のために尽くすのですよ……")
  ChangeSwitch(31,31,1)
  ChangeSwitch(32,32,1)
  ChangeSwitch(33,33,1)
  ChangeSwitch(34,34,1)
  241(bytes(0x04,0x08,0x6f,0x3a,0x0d,0x52,0x50,0x47,0x3a,0x3a,0x42,0x47,0x4d,0x08,0x3a,0x0a,0x40,0x6e,0x61,0x6d,0x65,0x49,0x22,0x10,0x73,0x63,0x65,0x6e,0x65,0x5f,0x73,0x69,0x6e,0x70,0x69,0x06,0x3a,0x06,0x45,0x54,0x3a,0x0c,0x40,0x76,0x6f,0x6c,0x75,0x6d,0x65,0x69,0x69,0x3a,0x0b,0x40,0x70,0x69,0x74,0x63,0x68,0x69,0x69))
  Wait(60)
  ShowMessageFace("sonia_fc2",2,0,2,22)
  ShowMessage("\\n<Sonya>泉に落ちたラミア、戻って来なかったね……")
  Wait(60)
  ChangeVariable(121,121,2,0,1)
  RunCommonEvent(901)
  EndEventProcessing()
  0()
 PAGE   2
  // condition: variable 126 >= 1
  ShowSpeechBalloon(0,1,false)
  205(0,bytes(0x04,0x08,0x6f,0x3a,0x13,0x52,0x50,0x47,0x3a,0x3a,0x4d,0x6f,0x76,0x65,0x52,0x6f,0x75,0x74,0x65,0x09,0x3a,0x0c,0x40,0x72,0x65,0x70,0x65,0x61,0x74,0x46,0x3a,0x0f,0x40,0x73,0x6b,0x69,0x70,0x70,0x61,0x62,0x6c,0x65,0x46,0x3a,0x0a,0x40,0x77,0x61,0x69,0x74,0x46,0x3a,0x0a,0x40,0x6c,0x69,0x73,0x74,0x5b,0x0c,0x6f,0x3a,0x15,0x52,0x50,0x47,0x3a,0x3a,0x4d,0x6f,0x76,0x65,0x43,0x6f,0x6d,0x6d,0x61,0x6e,0x64,0x07,0x3a,0x0a,0x40,0x63,0x6f,0x64,0x65,0x69,0x15,0x3a,0x10,0x40,0x70,0x61,0x72,0x61,0x6d,0x65,0x74,0x65,0x72,0x73,0x5b,0x00,0x6f,0x3b,0x0a,0x07,0x3b,0x0b,0x69,0x28,0x3b,0x0c,0x5b,0x00,0x6f,0x3b,0x0a,0x07,0x3b,0x0b,0x69,0x2a,0x3b,0x0c,0x5b,0x00,0x6f,0x3b,0x0a,0x07,0x3b,0x0b,0x69,0x09,0x3b,0x0c,0x5b,0x00,0x6f,0x3b,0x0a,0x07,0x3b,0x0b,0x69,0x2c,0x3b,0x0c,0x5b,0x00,0x6f,0x3b,0x0a,0x07,0x3b,0x0b,0x69,0x31,0x3b,0x0c,0x5b,0x06,0x6f,0x3a,0x0c,0x52,0x50,0x47,0x3a,0x3a,0x53,0x45,0x08,0x3a,0x0a,0x40,0x6e,0x61,0x6d,0x65,0x49,0x22,0x0b,0x57,0x61,0x74,0x65,0x72,0x31,0x06,0x3a,0x06,0x45,0x54,0x3a,0x0b,0x40,0x70,0x69,0x74,0x63,0x68,0x69,0x69,0x3a,0x0c,0x40,0x76,0x6f,0x6c,0x75,0x6d,0x65,0x69,0x55,0x6f,0x3b,0x0a,0x07,0x3b,0x0b,0x69,0x00,0x3b,0x0c,0x5b,0x00))
  ShowMessageFace("succubus_fc1",4,0,2,1)
  ShowMessage("\\n<Succubus>びっくり……！")
  ShowMessageFace("",0,0,2,2)
  ShowMessage("サキュバスは泉に落ちてしまった！")
  Wait(30)
  205(-1,bytes(0x04,0x08,0x6f,0x3a,0x13,0x52,0x50,0x47,0x3a,0x3a,0x4d,0x6f,0x76,0x65,0x52,0x6f,0x75,0x74,0x65,0x09,0x3a,0x0c,0x40,0x72,0x65,0x70,0x65,0x61,0x74,0x46,0x3a,0x0f,0x40,0x73,0x6b,0x69,0x70,0x70,0x61,0x62,0x6c,0x65,0x46,0x3a,0x0a,0x40,0x77,0x61,0x69,0x74,0x54,0x3a,0x0a,0x40,0x6c,0x69,0x73,0x74,0x5b,0x07,0x6f,0x3a,0x15,0x52,0x50,0x47,0x3a,0x3a,0x4d,0x6f,0x76,0x65,0x43,0x6f,0x6d,0x6d,0x61,0x6e,0x64,0x07,0x3a,0x0a,0x40,0x63,0x6f,0x64,0x65,0x69,0x18,0x3a,0x10,0x40,0x70,0x61,0x72,0x61,0x6d,0x65,0x74,0x65,0x72,0x73,0x5b,0x00,0x6f,0x3b,0x0a,0x07,0x3b,0x0b,0x69,0x00,0x3b,0x0c,0x5b,0x00))
  241(bytes(0x04,0x08,0x6f,0x3a,0x0d,0x52,0x50,0x47,0x3a,0x3a,0x42,0x47,0x4d,0x08,0x3a,0x0a,0x40,0x6e,0x61,0x6d,0x65,0x49,0x22,0x0a,0x69,0x72,0x69,0x61,0x73,0x06,0x3a,0x06,0x45,0x54,0x3a,0x0c,0x40,0x76,0x6f,0x6c,0x75,0x6d,0x65,0x69,0x69,0x3a,0x0b,0x40,0x70,0x69,0x74,0x63,0x68,0x69,0x69))
  212(2,501,false)
  Wait(30)
  ChangeSwitch(31,31,0)
  ShowMessageFace("iriasu_fc1",0,0,2,3)
  ShowMessage("\\n<Ilias>私は泉の女神……")
  ShowMessage("神聖なる泉に、ずいぶんつまらないものを落としたようですね。")
  ChangeSwitch(32,32,0)
  ShowMessageFace("iriasu_fc1",0,0,2,4)
  ShowMessage("\\n<Ilias>あなたが落としたのは、この残念な淫魔ですか？")
  ShowMessageFace("eva_fc1",2,0,2,5)
  ShowMessage("\\n<Eva>ねぇ、私を指名しなさいよ！")
  ShowMessage("お返しに、いいコトしてあげるから！")
  ChangeSwitch(33,33,0)
  ShowMessageFace("iriasu_fc1",0,0,2,6)
  ShowMessage("\\n<Ilias>それとも、普通の淫魔ですか？")
  ShowMessageFace("succubus_fc1",4,0,2,7)
  ShowMessage("\\n<Succubus>あらあら、せっかくの服がズブ濡れね……")
  ShowMessage("もちろん、助けてくれるわよね？")
  ChangeSwitch(34,34,0)
  ShowMessageFace("iriasu_fc1",0,0,2,8)
  ShowMessage("\\n<Ilias>もしくは、高価な淫魔ですか？")
  ShowMessageFace("arumaeruma_fc2",0,0,2,9)
  ShowMessage("\\n<Alma Elma>高価って、私をモノみたいに……")
  ShowMessage("ともかく、当然私を選んでくれるわよね♪")
  ShowMessageFace("iriasu_fc1",0,0,2,10)
  ShowMessage("\\n<Ilias>さあ、正直に答えるのです……")
  ShowMessage("あなたの落とした淫魔は、どれですか？")
  ShowChoices(strings("残念な淫魔","普通の淫魔","高価な淫魔"),0)
  IfPlayerPicksChoice(0,null)
   ShowMessageFace("eva_fc1",1,0,2,11)
   ShowMessage("\\n<Eva>やったぁ、助けてくれるの？")
   ShowMessage("やっぱり世の中、チョロイわよねー♪")
   ShowMessageFace("iriasu_fc1",1,0,2,12)
   ShowMessage("\\n<Ilias>なんと、あなたは謙虚なのですね……")
   ShowMessage("その身を守る、素晴らしい防具を授けましょう。")
   RunCommonEvent(835)
   0()
  IfPlayerPicksChoice(1,null)
   ShowMessageFace("succubus_fc1",5,0,2,13)
   ShowMessage("\\n<Succubus>うふふっ、ありがとう。")
   ShowMessage("後でとっておきの料理を御馳走してあげるわ。")
   ShowMessageFace("iriasu_fc1",1,0,2,14)
   ShowMessage("\\n<Ilias>あなたは正直者なのですね……")
   ShowMessage("清き心の持ち主には、素晴らしい武器を授けましょう。")
   RunCommonEvent(833)
   0()
  IfPlayerPicksChoice(2,null)
   ShowMessageFace("arumaeruma_fc2",1,0,2,15)
   ShowMessage("\\n<Alma Elma>うふふっ、私を選ぶの？")
   ShowMessage("それじゃあ、後でたっぷりお礼をしてあげるわ……♪")
   ShowMessageFace("iriasu_fc1",3,0,2,16)
   ShowMessage("\\n<Ilias>嘘を吐きましたね……")
   ShowMessage("欲にまみれたあなたは、苦難の道を辿るでしょう。")
   250(bytes(0x04,0x08,0x6f,0x3a,0x0c,0x52,0x50,0x47,0x3a,0x3a,0x53,0x45,0x08,0x3a,0x0a,0x40,0x6e,0x61,0x6d,0x65,0x49,0x22,0x0e,0x6d,0x6f,0x6e,0x5f,0x64,0x6f,0x77,0x6e,0x34,0x06,0x3a,0x06,0x45,0x54,0x3a,0x0b,0x40,0x70,0x69,0x74,0x63,0x68,0x69,0x69,0x3a,0x0c,0x40,0x76,0x6f,0x6c,0x75,0x6d,0x65,0x69,0x69))
   ShowMessageFace("",0,0,2,17)
   ShowMessage("ダンジョンに登場する敵の強さが上がった！")
   ShowMessageFace("iriasu_fc1",0,0,2,18)
   ShowMessage("\\n<Ilias>しかし、ピンチこそチャンス……")
   ShowMessage("敵の強さが上がった影響で、レア度も上がったようですね。")
   If(1,151,0,0,0)
    ChangeVariable(150,150,1,0,30)
    RunCommonEvent(918)
    RunCommonEvent(919)
    ShowMessageFace("",0,0,2,19)
    ShowMessage("レアポイントが30アップ！")
    ShowMessage("（現在のレアポイント：\\V[150]）")
    0()
   EndIf()
   If(1,151,0,1,1)
    ChangeVariable(150,150,1,0,150)
    RunCommonEvent(918)
    RunCommonEvent(919)
    ShowMessageFace("",0,0,2,20)
    ShowMessage("レアポイントが150アップ！")
    ShowMessage("（現在のレアポイント：\\V[150]）")
    0()
   EndIf()
   0()
  404()
  ShowMessageFace("iriasu_fc1",1,0,2,21)
  ShowMessage("\\n<Ilias>それでは行きなさい、勇者ルカ。")
  ShowMessage("これからも、私のために尽くすのですよ……")
  ChangeSwitch(31,31,1)
  ChangeSwitch(32,32,1)
  ChangeSwitch(33,33,1)
  ChangeSwitch(34,34,1)
  241(bytes(0x04,0x08,0x6f,0x3a,0x0d,0x52,0x50,0x47,0x3a,0x3a,0x42,0x47,0x4d,0x08,0x3a,0x0a,0x40,0x6e,0x61,0x6d,0x65,0x49,0x22,0x10,0x73,0x63,0x65,0x6e,0x65,0x5f,0x73,0x69,0x6e,0x70,0x69,0x06,0x3a,0x06,0x45,0x54,0x3a,0x0c,0x40,0x76,0x6f,0x6c,0x75,0x6d,0x65,0x69,0x69,0x3a,0x0b,0x40,0x70,0x69,0x74,0x63,0x68,0x69,0x69))
  Wait(60)
  ShowMessageFace("sonia_fc2",2,0,2,22)
  ShowMessage("\\n<Sonya>泉に落ちたサキュバス、戻って来なかったね……")
  Wait(60)
  ChangeVariable(121,121,2,0,1)
  RunCommonEvent(901)
  EndEventProcessing()
  0()
 PAGE   3
  // condition: variable 126 >= 2
  ShowSpeechBalloon(0,1,false)
  205(0,bytes(0x04,0x08,0x6f,0x3a,0x13,0x52,0x50,0x47,0x3a,0x3a,0x4d,0x6f,0x76,0x65,0x52,0x6f,0x75,0x74,0x65,0x09,0x3a,0x0c,0x40,0x72,0x65,0x70,0x65,0x61,0x74,0x46,0x3a,0x0f,0x40,0x73,0x6b,0x69,0x70,0x70,0x61,0x62,0x6c,0x65,0x46,0x3a,0x0a,0x40,0x77,0x61,0x69,0x74,0x46,0x3a,0x0a,0x40,0x6c,0x69,0x73,0x74,0x5b,0x0c,0x6f,0x3a,0x15,0x52,0x50,0x47,0x3a,0x3a,0x4d,0x6f,0x76,0x65,0x43,0x6f,0x6d,0x6d,0x61,0x6e,0x64,0x07,0x3a,0x0a,0x40,0x63,0x6f,0x64,0x65,0x69,0x15,0x3a,0x10,0x40,0x70,0x61,0x72,0x61,0x6d,0x65,0x74,0x65,0x72,0x73,0x5b,0x00,0x6f,0x3b,0x0a,0x07,0x3b,0x0b,0x69,0x28,0x3b,0x0c,0x5b,0x00,0x6f,0x3b,0x0a,0x07,0x3b,0x0b,0x69,0x2a,0x3b,0x0c,0x5b,0x00,0x6f,0x3b,0x0a,0x07,0x3b,0x0b,0x69,0x09,0x3b,0x0c,0x5b,0x00,0x6f,0x3b,0x0a,0x07,0x3b,0x0b,0x69,0x2c,0x3b,0x0c,0x5b,0x00,0x6f,0x3b,0x0a,0x07,0x3b,0x0b,0x69,0x31,0x3b,0x0c,0x5b,0x06,0x6f,0x3a,0x0c,0x52,0x50,0x47,0x3a,0x3a,0x53,0x45,0x08,0x3a,0x0a,0x40,0x6e,0x61,0x6d,0x65,0x49,0x22,0x0b,0x57,0x61,0x74,0x65,0x72,0x31,0x06,0x3a,0x06,0x45,0x54,0x3a,0x0b,0x40,0x70,0x69,0x74,0x63,0x68,0x69,0x69,0x3a,0x0c,0x40,0x76,0x6f,0x6c,0x75,0x6d,0x65,0x69,0x55,0x6f,0x3b,0x0a,0x07,0x3b,0x0b,0x69,0x00,0x3b,0x0c,0x5b,0x00))
  ShowMessageFace("slime_fc1",2,0,2,1)
  ShowMessage("\\n<スライム娘>わわわ……！")
  ShowMessageFace("",0,0,2,2)
  ShowMessage("スライム娘は泉に落ちてしまった！")
  Wait(30)
  205(-1,bytes(0x04,0x08,0x6f,0x3a,0x13,0x52,0x50,0x47,0x3a,0x3a,0x4d,0x6f,0x76,0x65,0x52,0x6f,0x75,0x74,0x65,0x09,0x3a,0x0c,0x40,0x72,0x65,0x70,0x65,0x61,0x74,0x46,0x3a,0x0f,0x40,0x73,0x6b,0x69,0x70,0x70,0x61,0x62,0x6c,0x65,0x46,0x3a,0x0a,0x40,0x77,0x61,0x69,0x74,0x54,0x3a,0x0a,0x40,0x6c,0x69,0x73,0x74,0x5b,0x07,0x6f,0x3a,0x15,0x52,0x50,0x47,0x3a,0x3a,0x4d,0x6f,0x76,0x65,0x43,0x6f,0x6d,0x6d,0x61,0x6e,0x64,0x07,0x3a,0x0a,0x40,0x63,0x6f,0x64,0x65,0x69,0x18,0x3a,0x10,0x40,0x70,0x61,0x72,0x61,0x6d,0x65,0x74,0x65,0x72,0x73,0x5b,0x00,0x6f,0x3b,0x0a,0x07,0x3b,0x0b,0x69,0x00,0x3b,0x0c,0x5b,0x00))
  241(bytes(0x04,0x08,0x6f,0x3a,0x0d,0x52,0x50,0x47,0x3a,0x3a,0x42,0x47,0x4d,0x08,0x3a,0x0a,0x40,0x6e,0x61,0x6d,0x65,0x49,0x22,0x0a,0x69,0x72,0x69,0x61,0x73,0x06,0x3a,0x06,0x45,0x54,0x3a,0x0c,0x40,0x76,0x6f,0x6c,0x75,0x6d,0x65,0x69,0x69,0x3a,0x0b,0x40,0x70,0x69,0x74,0x63,0x68,0x69,0x69))
  212(2,501,false)
  Wait(30)
  ChangeSwitch(31,31,0)
  ShowMessageFace("iriasu_fc1",0,0,2,3)
  ShowMessage("\\n<Ilias>私は泉の女神……")
  ShowMessage("神聖なる泉に、ずいぶんつまらないものを落としたようですね。")
  ChangeSwitch(32,32,0)
  ShowMessageFace("iriasu_fc1",0,0,2,4)
  ShowMessage("\\n<Ilias>あなたが落としたのは、ただのスライムですか？")
  ShowMessageFace("",0,0,2,5)
  ShowMessage("\\n<スライム>……………………")
  ChangeSwitch(33,33,0)
  ShowMessageFace("iriasu_fc1",0,0,2,6)
  ShowMessage("\\n<Ilias>それとも、アホなスライム娘ですか？")
  ShowMessageFace("slime_fc1",0,0,2,7)
  ShowMessage("\\n<スライム娘>わーい！　なんだかたのしーい！")
  ChangeSwitch(34,34,0)
  ShowMessageFace("iriasu_fc1",0,0,2,8)
  ShowMessage("\\n<Ilias>もしくは、高価なスライム娘ですか？")
  ShowMessageFace("erbetie_fc1",0,0,2,9)
  ShowMessage("\\n<エルベティエ>この泉、とっても綺麗ね。")
  ShowMessage("ここをスライム族の聖地にしようかしら……")
  ShowMessageFace("iriasu_fc1",0,0,2,10)
  ShowMessage("\\n<Ilias>さあ、正直に答えるのです……")
  ShowMessage("あなたの落としたスライム娘は、どれですか？")
  ShowChoices(strings("ただのスライム","アホなスライム娘","高価なスライム娘"),0)
  IfPlayerPicksChoice(0,null)
   ShowMessageFace("",0,0,2,11)
   ShowMessage("\\n<スライム>……………………")
   ShowMessageFace("iriasu_fc1",1,0,2,12)
   ShowMessage("\\n<Ilias>なんと、あなたは謙虚なのですね……")
   ShowMessage("その身を守る、素晴らしい防具を授けましょう。")
   RunCommonEvent(835)
   0()
  IfPlayerPicksChoice(1,null)
   ShowMessageFace("slime_fc1",0,0,2,13)
   ShowMessage("\\n<スライム娘>わわわ～い！　わわわ～い！")
   ShowMessageFace("iriasu_fc1",1,0,2,14)
   ShowMessage("\\n<Ilias>あなたは正直者なのですね……")
   ShowMessage("清き心の持ち主には、素晴らしい武器を授けましょう。")
   RunCommonEvent(832)
   0()
  IfPlayerPicksChoice(2,null)
   ShowMessageFace("erbetie_fc1",0,0,2,15)
   ShowMessage("\\n<エルベティエ>純真なスライム娘を見捨て、私を選ぶなんて……")
   ShowMessage("あなたは、邪悪な人間なのね。")
   ShowMessageFace("iriasu_fc1",3,0,2,16)
   ShowMessage("\\n<Ilias>嘘を吐きましたね……")
   ShowMessage("欲にまみれたあなたは、苦難の道を辿るでしょう。")
   250(bytes(0x04,0x08,0x6f,0x3a,0x0c,0x52,0x50,0x47,0x3a,0x3a,0x53,0x45,0x08,0x3a,0x0a,0x40,0x6e,0x61,0x6d,0x65,0x49,0x22,0x0e,0x6d,0x6f,0x6e,0x5f,0x64,0x6f,0x77,0x6e,0x34,0x06,0x3a,0x06,0x45,0x54,0x3a,0x0b,0x40,0x70,0x69,0x74,0x63,0x68,0x69,0x69,0x3a,0x0c,0x40,0x76,0x6f,0x6c,0x75,0x6d,0x65,0x69,0x69))
   ShowMessageFace("",0,0,2,17)
   ShowMessage("ダンジョンに登場する敵の強さが上がった！")
   ShowMessageFace("iriasu_fc1",0,0,2,18)
   ShowMessage("\\n<Ilias>しかし、ピンチこそチャンス……")
   ShowMessage("敵の強さが上がった影響で、レア度も上がったようですね。")
   If(1,151,0,0,0)
    ChangeVariable(150,150,1,0,30)
    RunCommonEvent(918)
    RunCommonEvent(919)
    ShowMessageFace("",0,0,2,19)
    ShowMessage("レアポイントが30アップ！")
    ShowMessage("（現在のレアポイント：\\V[150]）")
    0()
   EndIf()
   If(1,151,0,1,1)
    ChangeVariable(150,150,1,0,150)
    RunCommonEvent(918)
    RunCommonEvent(919)
    ShowMessageFace("",0,0,2,20)
    ShowMessage("レアポイントが150アップ！")
    ShowMessage("（現在のレアポイント：\\V[150]）")
    0()
   EndIf()
   0()
  404()
  ShowMessageFace("iriasu_fc1",1,0,2,21)
  ShowMessage("\\n<Ilias>それでは行きなさい、勇者ルカ。")
  ShowMessage("これからも、私のために尽くすのですよ……")
  ChangeSwitch(31,31,1)
  ChangeSwitch(32,32,1)
  ChangeSwitch(33,33,1)
  ChangeSwitch(34,34,1)
  241(bytes(0x04,0x08,0x6f,0x3a,0x0d,0x52,0x50,0x47,0x3a,0x3a,0x42,0x47,0x4d,0x08,0x3a,0x0a,0x40,0x6e,0x61,0x6d,0x65,0x49,0x22,0x10,0x73,0x63,0x65,0x6e,0x65,0x5f,0x73,0x69,0x6e,0x70,0x69,0x06,0x3a,0x06,0x45,0x54,0x3a,0x0c,0x40,0x76,0x6f,0x6c,0x75,0x6d,0x65,0x69,0x69,0x3a,0x0b,0x40,0x70,0x69,0x74,0x63,0x68,0x69,0x69))
  Wait(60)
  ShowMessageFace("sonia_fc2",2,0,2,22)
  ShowMessage("\\n<Sonya>泉に落ちたスライム娘、戻って来なかったね……")
  ShowMessageFace("slime_fc1",0,0,2,23)
  ShowMessage("\\n<スライム娘>ここにいるよ～♪")
  ShowMessageFace("sonia_fc2",2,0,2,24)
  ShowMessage("\\n<Sonya>……あれっ？")
  Wait(60)
  ChangeVariable(121,121,2,0,1)
  RunCommonEvent(901)
  EndEventProcessing()
  0()
 PAGE   4
  // condition: variable 126 >= 3
  ShowSpeechBalloon(0,1,false)
  205(0,bytes(0x04,0x08,0x6f,0x3a,0x13,0x52,0x50,0x47,0x3a,0x3a,0x4d,0x6f,0x76,0x65,0x52,0x6f,0x75,0x74,0x65,0x09,0x3a,0x0c,0x40,0x72,0x65,0x70,0x65,0x61,0x74,0x46,0x3a,0x0f,0x40,0x73,0x6b,0x69,0x70,0x70,0x61,0x62,0x6c,0x65,0x46,0x3a,0x0a,0x40,0x77,0x61,0x69,0x74,0x46,0x3a,0x0a,0x40,0x6c,0x69,0x73,0x74,0x5b,0x0c,0x6f,0x3a,0x15,0x52,0x50,0x47,0x3a,0x3a,0x4d,0x6f,0x76,0x65,0x43,0x6f,0x6d,0x6d,0x61,0x6e,0x64,0x07,0x3a,0x0a,0x40,0x63,0x6f,0x64,0x65,0x69,0x15,0x3a,0x10,0x40,0x70,0x61,0x72,0x61,0x6d,0x65,0x74,0x65,0x72,0x73,0x5b,0x00,0x6f,0x3b,0x0a,0x07,0x3b,0x0b,0x69,0x28,0x3b,0x0c,0x5b,0x00,0x6f,0x3b,0x0a,0x07,0x3b,0x0b,0x69,0x2a,0x3b,0x0c,0x5b,0x00,0x6f,0x3b,0x0a,0x07,0x3b,0x0b,0x69,0x09,0x3b,0x0c,0x5b,0x00,0x6f,0x3b,0x0a,0x07,0x3b,0x0b,0x69,0x2c,0x3b,0x0c,0x5b,0x00,0x6f,0x3b,0x0a,0x07,0x3b,0x0b,0x69,0x31,0x3b,0x0c,0x5b,0x06,0x6f,0x3a,0x0c,0x52,0x50,0x47,0x3a,0x3a,0x53,0x45,0x08,0x3a,0x0a,0x40,0x6e,0x61,0x6d,0x65,0x49,0x22,0x0b,0x57,0x61,0x74,0x65,0x72,0x31,0x06,0x3a,0x06,0x45,0x54,0x3a,0x0b,0x40,0x70,0x69,0x74,0x63,0x68,0x69,0x69,0x3a,0x0c,0x40,0x76,0x6f,0x6c,0x75,0x6d,0x65,0x69,0x55,0x6f,0x3b,0x0a,0x07,0x3b,0x0b,0x69,0x00,0x3b,0x0c,0x5b,0x00))
  ShowMessageFace("sonia_fc2",3,0,2,1)
  ShowMessage("\\n<Sonya>きゃっ！？")
  ShowMessageFace("",0,0,2,2)
  ShowMessage("ソニアは泉に落ちてしまった！")
  Wait(30)
  205(-1,bytes(0x04,0x08,0x6f,0x3a,0x13,0x52,0x50,0x47,0x3a,0x3a,0x4d,0x6f,0x76,0x65,0x52,0x6f,0x75,0x74,0x65,0x09,0x3a,0x0c,0x40,0x72,0x65,0x70,0x65,0x61,0x74,0x46,0x3a,0x0f,0x40,0x73,0x6b,0x69,0x70,0x70,0x61,0x62,0x6c,0x65,0x46,0x3a,0x0a,0x40,0x77,0x61,0x69,0x74,0x54,0x3a,0x0a,0x40,0x6c,0x69,0x73,0x74,0x5b,0x07,0x6f,0x3a,0x15,0x52,0x50,0x47,0x3a,0x3a,0x4d,0x6f,0x76,0x65,0x43,0x6f,0x6d,0x6d,0x61,0x6e,0x64,0x07,0x3a,0x0a,0x40,0x63,0x6f,0x64,0x65,0x69,0x18,0x3a,0x10,0x40,0x70,0x61,0x72,0x61,0x6d,0x65,0x74,0x65,0x72,0x73,0x5b,0x00,0x6f,0x3b,0x0a,0x07,0x3b,0x0b,0x69,0x00,0x3b,0x0c,0x5b,0x00))
  241(bytes(0x04,0x08,0x6f,0x3a,0x0d,0x52,0x50,0x47,0x3a,0x3a,0x42,0x47,0x4d,0x08,0x3a,0x0a,0x40,0x6e,0x61,0x6d,0x65,0x49,0x22,0x0a,0x69,0x72,0x69,0x61,0x73,0x06,0x3a,0x06,0x45,0x54,0x3a,0x0c,0x40,0x76,0x6f,0x6c,0x75,0x6d,0x65,0x69,0x69,0x3a,0x0b,0x40,0x70,0x69,0x74,0x63,0x68,0x69,0x69))
  212(2,501,false)
  Wait(30)
  ChangeSwitch(31,31,0)
  ShowMessageFace("iriasu_fc1",0,0,2,3)
  ShowMessage("\\n<Ilias>私は泉の女神……")
  ShowMessage("神聖なる泉に、ずいぶんつまらないものを落としたようですね。")
  ChangeSwitch(32,32,0)
  ShowMessageFace("iriasu_fc1",0,0,2,4)
  ShowMessage("\\n<Ilias>あなたが落としたのは、残念な幼馴染みですか？")
  ShowMessageFace("sonia_fc2",5,0,2,5)
  ShowMessage("\\n<Sonya>ちょっと！　残念な幼馴染みってなんなのよ！")
  ChangeSwitch(33,33,0)
  ShowMessageFace("iriasu_fc1",0,0,2,6)
  ShowMessage("\\n<Ilias>それとも、グレた幼馴染みですか？")
  ShowMessageFace("soniamanyu_fc1",0,0,2,7)
  ShowMessage("\\n<Sonya>ふふふふふっ……")
  ChangeSwitch(34,34,0)
  ShowMessageFace("iriasu_fc1",0,0,2,8)
  ShowMessage("\\n<Ilias>もしくは、■■■な幼馴染みですか？")
  ShowMessageFace("soniachaos_fc1",0,0,2,9)
  ShowMessage("\\n<Sonya>■■■■■■■■■■■■■■■■……")
  ShowMessageFace("iriasu_fc1",0,0,2,10)
  ShowMessage("\\n<Ilias>さあ、正直に答えるのです……")
  ShowMessage("あなたの落とした幼馴染みは、どれですか？")
  ShowChoices(strings("残念な幼馴染み","グレた幼馴染み","■■■な幼馴染み"),0)
  IfPlayerPicksChoice(0,null)
   ShowMessageFace("sonia_fc2",2,0,2,11)
   ShowMessage("\\n<Sonya>なんだか、釈然としない気分……")
   ShowMessageFace("iriasu_fc1",1,0,2,12)
   ShowMessage("\\n<Ilias>あなたは正直者なのですね……")
   ShowMessage("清き心の持ち主には、素晴らしい武器を授けましょう。")
   RunCommonEvent(831)
   0()
  IfPlayerPicksChoice(1,null)
   ShowMessageFace("soniamanyu_fc1",1,0,2,13)
   ShowMessage("\\n<Sonya>そうよ、分かってるじゃない……")
   ShowMessage("私こそが、真のソニアなのよ。")
   ShowMessageFace("iriasu_fc1",1,0,2,14)
   ShowMessage("\\n<Ilias>グレた幼馴染みを引き取るとは、結構な心掛けですね。")
   ShowMessage("その身を守る、素晴らしい防具を授けましょう。")
   RunCommonEvent(837)
   0()
  IfPlayerPicksChoice(2,null)
   ShowMessageFace("soniachaos_fc1",0,0,2,15)
   ShowMessage("\\n<Sonya>■■■■■■■■■■■■■■■■……")
   ShowMessageFace("iriasu_fc1",3,0,2,16)
   ShowMessage("\\n<Ilias>なんと、自ら苦難を選ぶとは……")
   ShowMessage("特別に私からも、苦難の道を送りましょう。")
   250(bytes(0x04,0x08,0x6f,0x3a,0x0c,0x52,0x50,0x47,0x3a,0x3a,0x53,0x45,0x08,0x3a,0x0a,0x40,0x6e,0x61,0x6d,0x65,0x49,0x22,0x0e,0x6d,0x6f,0x6e,0x5f,0x64,0x6f,0x77,0x6e,0x34,0x06,0x3a,0x06,0x45,0x54,0x3a,0x0b,0x40,0x70,0x69,0x74,0x63,0x68,0x69,0x69,0x3a,0x0c,0x40,0x76,0x6f,0x6c,0x75,0x6d,0x65,0x69,0x69))
   ShowMessageFace("",0,0,2,17)
   ShowMessage("ダンジョンに登場する敵の強さが上がった！")
   ShowMessageFace("iriasu_fc1",0,0,2,18)
   ShowMessage("\\n<Ilias>しかし、ピンチこそチャンス……")
   ShowMessage("敵の強さが上がった影響で、レア度も上がったようですね。")
   If(1,151,0,0,0)
    ChangeVariable(150,150,1,0,30)
    RunCommonEvent(918)
    RunCommonEvent(919)
    ShowMessageFace("",0,0,2,19)
    ShowMessage("レアポイントが30アップ！")
    ShowMessage("（現在のレアポイント：\\V[150]）")
    0()
   EndIf()
   If(1,151,0,1,1)
    ChangeVariable(150,150,1,0,150)
    RunCommonEvent(918)
    RunCommonEvent(919)
    ShowMessageFace("",0,0,2,20)
    ShowMessage("レアポイントが150アップ！")
    ShowMessage("（現在のレアポイント：\\V[150]）")
    0()
   EndIf()
   0()
  404()
  ShowMessageFace("iriasu_fc1",1,0,2,21)
  ShowMessage("\\n<Ilias>それでは行きなさい、勇者ルカ。")
  ShowMessage("これからも、私のために尽くすのですよ……")
  ChangeSwitch(31,31,1)
  ChangeSwitch(32,32,1)
  ChangeSwitch(33,33,1)
  ChangeSwitch(34,34,1)
  241(bytes(0x04,0x08,0x6f,0x3a,0x0d,0x52,0x50,0x47,0x3a,0x3a,0x42,0x47,0x4d,0x08,0x3a,0x0a,0x40,0x6e,0x61,0x6d,0x65,0x49,0x22,0x10,0x73,0x63,0x65,0x6e,0x65,0x5f,0x73,0x69,0x6e,0x70,0x69,0x06,0x3a,0x06,0x45,0x54,0x3a,0x0c,0x40,0x76,0x6f,0x6c,0x75,0x6d,0x65,0x69,0x69,0x3a,0x0b,0x40,0x70,0x69,0x74,0x63,0x68,0x69,0x69))
  Wait(60)
  ShowMessageFace("sonia_fc3",2,0,2,22)
  ShowMessage("\\n<Sonya>いったい何なの！？　これ、何なの！？")
  Wait(60)
  ChangeVariable(121,121,2,0,1)
  RunCommonEvent(901)
  EndEventProcessing()
  0()
 PAGE   5
  // condition: variable 126 >= 4
  ShowSpeechBalloon(0,1,false)
  205(0,bytes(0x04,0x08,0x6f,0x3a,0x13,0x52,0x50,0x47,0x3a,0x3a,0x4d,0x6f,0x76,0x65,0x52,0x6f,0x75,0x74,0x65,0x09,0x3a,0x0c,0x40,0x72,0x65,0x70,0x65,0x61,0x74,0x46,0x3a,0x0f,0x40,0x73,0x6b,0x69,0x70,0x70,0x61,0x62,0x6c,0x65,0x46,0x3a,0x0a,0x40,0x77,0x61,0x69,0x74,0x46,0x3a,0x0a,0x40,0x6c,0x69,0x73,0x74,0x5b,0x0c,0x6f,0x3a,0x15,0x52,0x50,0x47,0x3a,0x3a,0x4d,0x6f,0x76,0x65,0x43,0x6f,0x6d,0x6d,0x61,0x6e,0x64,0x07,0x3a,0x0a,0x40,0x63,0x6f,0x64,0x65,0x69,0x15,0x3a,0x10,0x40,0x70,0x61,0x72,0x61,0x6d,0x65,0x74,0x65,0x72,0x73,0x5b,0x00,0x6f,0x3b,0x0a,0x07,0x3b,0x0b,0x69,0x28,0x3b,0x0c,0x5b,0x00,0x6f,0x3b,0x0a,0x07,0x3b,0x0b,0x69,0x2a,0x3b,0x0c,0x5b,0x00,0x6f,0x3b,0x0a,0x07,0x3b,0x0b,0x69,0x09,0x3b,0x0c,0x5b,0x00,0x6f,0x3b,0x0a,0x07,0x3b,0x0b,0x69,0x2c,0x3b,0x0c,0x5b,0x00,0x6f,0x3b,0x0a,0x07,0x3b,0x0b,0x69,0x31,0x3b,0x0c,0x5b,0x06,0x6f,0x3a,0x0c,0x52,0x50,0x47,0x3a,0x3a,0x53,0x45,0x08,0x3a,0x0a,0x40,0x6e,0x61,0x6d,0x65,0x49,0x22,0x0b,0x57,0x61,0x74,0x65,0x72,0x31,0x06,0x3a,0x06,0x45,0x54,0x3a,0x0b,0x40,0x70,0x69,0x74,0x63,0x68,0x69,0x69,0x3a,0x0c,0x40,0x76,0x6f,0x6c,0x75,0x6d,0x65,0x69,0x55,0x6f,0x3b,0x0a,0x07,0x3b,0x0b,0x69,0x00,0x3b,0x0c,0x5b,0x00))
  ShowMessageFace("lazarus1_fc1",6,0,2,1)
  ShowMessage("\\n<Lazarus>オアー！！")
  ShowMessageFace("",0,0,2,2)
  ShowMessage("ラザロは泉に落ちてしまった！")
  Wait(30)
  205(-1,bytes(0x04,0x08,0x6f,0x3a,0x13,0x52,0x50,0x47,0x3a,0x3a,0x4d,0x6f,0x76,0x65,0x52,0x6f,0x75,0x74,0x65,0x09,0x3a,0x0c,0x40,0x72,0x65,0x70,0x65,0x61,0x74,0x46,0x3a,0x0f,0x40,0x73,0x6b,0x69,0x70,0x70,0x61,0x62,0x6c,0x65,0x46,0x3a,0x0a,0x40,0x77,0x61,0x69,0x74,0x54,0x3a,0x0a,0x40,0x6c,0x69,0x73,0x74,0x5b,0x07,0x6f,0x3a,0x15,0x52,0x50,0x47,0x3a,0x3a,0x4d,0x6f,0x76,0x65,0x43,0x6f,0x6d,0x6d,0x61,0x6e,0x64,0x07,0x3a,0x0a,0x40,0x63,0x6f,0x64,0x65,0x69,0x18,0x3a,0x10,0x40,0x70,0x61,0x72,0x61,0x6d,0x65,0x74,0x65,0x72,0x73,0x5b,0x00,0x6f,0x3b,0x0a,0x07,0x3b,0x0b,0x69,0x00,0x3b,0x0c,0x5b,0x00))
  241(bytes(0x04,0x08,0x6f,0x3a,0x0d,0x52,0x50,0x47,0x3a,0x3a,0x42,0x47,0x4d,0x08,0x3a,0x0a,0x40,0x6e,0x61,0x6d,0x65,0x49,0x22,0x0a,0x69,0x72,0x69,0x61,0x73,0x06,0x3a,0x06,0x45,0x54,0x3a,0x0c,0x40,0x76,0x6f,0x6c,0x75,0x6d,0x65,0x69,0x69,0x3a,0x0b,0x40,0x70,0x69,0x74,0x63,0x68,0x69,0x69))
  212(2,501,false)
  Wait(30)
  ChangeSwitch(31,31,0)
  ShowMessageFace("iriasu_fc1",0,0,2,3)
  ShowMessage("\\n<Ilias>私は泉の女神……")
  ShowMessage("神聖なる泉に、ずいぶんつまらないものを落としたようですね。")
  ChangeSwitch(32,32,0)
  ShowMessageFace("iriasu_fc1",0,0,2,4)
  ShowMessage("\\n<Ilias>あなたが落としたのは、きたないラザロですか？")
  ShowMessageFace("lazarus1_fc1",5,0,2,5)
  ShowMessage("\\n<Lazarus>なんだよ、これ！　おい、助けろよ！")
  ChangeSwitch(33,33,0)
  ShowMessageFace("iriasu_fc1",0,0,2,6)
  ShowMessage("\\n<Ilias>それとも、ゴージャスなラザロですか？")
  ShowMessageFace("lazarus3_fc1",3,0,2,7)
  ShowMessage("\\n<Lazarus>おいおい、なんなんだよ……")
  ShowMessage("俺、拉致されたのか？")
  ChangeSwitch(34,34,0)
  ShowMessageFace("iriasu_fc1",0,0,2,8)
  ShowMessage("\\n<Ilias>もしくは、物静かなラザロですか？")
  ShowMessageFace("",0,0,2,9)
  ShowMessage("\\n<石化ラザロ>……………………")
  ShowMessageFace("iriasu_fc1",0,0,2,10)
  ShowMessage("\\n<Ilias>さあ、正直に答えるのです……")
  ShowMessage("あなたの落としたラザロは、どれですか？")
  ShowChoices(strings("きたないラザロ","ゴージャスなラザロ","物静かなラザロ"),0)
  IfPlayerPicksChoice(0,null)
   ShowMessageFace("lazarus1_fc1",3,0,2,11)
   ShowMessage("\\n<Lazarus>いったいなんなんだ、まったく……")
   ShowMessageFace("iriasu_fc1",1,0,2,12)
   ShowMessage("\\n<Ilias>あなたは正直者なのですね……")
   ShowMessage("清き心の持ち主には、素晴らしい武器を授けましょう。")
   RunCommonEvent(832)
   0()
  IfPlayerPicksChoice(1,null)
   ShowMessageFace("lazarus3_fc1",1,0,2,13)
   ShowMessage("\\n<Lazarus>おう、ありがとよ！")
   ShowMessage("見返りは別にないけどな！")
   ShowMessageFace("iriasu_fc1",3,0,2,14)
   ShowMessage("\\n<Ilias>ゴージャスさに目がくらみ、嘘を吐きましたね……")
   ShowMessage("欲にまみれたあなたは、苦難の道を辿るでしょう。")
   250(bytes(0x04,0x08,0x6f,0x3a,0x0c,0x52,0x50,0x47,0x3a,0x3a,0x53,0x45,0x08,0x3a,0x0a,0x40,0x6e,0x61,0x6d,0x65,0x49,0x22,0x0e,0x6d,0x6f,0x6e,0x5f,0x64,0x6f,0x77,0x6e,0x34,0x06,0x3a,0x06,0x45,0x54,0x3a,0x0b,0x40,0x70,0x69,0x74,0x63,0x68,0x69,0x69,0x3a,0x0c,0x40,0x76,0x6f,0x6c,0x75,0x6d,0x65,0x69,0x69))
   ShowMessageFace("",0,0,2,15)
   ShowMessage("ダンジョンに登場する敵の強さが上がった！")
   ShowMessageFace("iriasu_fc1",0,0,2,16)
   ShowMessage("\\n<Ilias>しかし、ピンチこそチャンス……")
   ShowMessage("敵の強さが上がった影響で、レア度も上がったようですね。")
   If(1,151,0,0,0)
    ChangeVariable(150,150,1,0,30)
    RunCommonEvent(918)
    RunCommonEvent(919)
    ShowMessageFace("",0,0,2,17)
    ShowMessage("レアポイントが30アップ！")
    ShowMessage("（現在のレアポイント：\\V[150]）")
    0()
   EndIf()
   If(1,151,0,1,1)
    ChangeVariable(150,150,1,0,150)
    RunCommonEvent(918)
    RunCommonEvent(919)
    ShowMessageFace("",0,0,2,18)
    ShowMessage("レアポイントが150アップ！")
    ShowMessage("（現在のレアポイント：\\V[150]）")
    0()
   EndIf()
   0()
  IfPlayerPicksChoice(2,null)
   ShowMessageFace("",0,0,2,19)
   ShowMessage("\\n<石化ラザロ>……………………")
   ShowMessageFace("iriasu_fc1",1,0,2,20)
   ShowMessage("\\n<Ilias>こんな趣味の悪い石像を引き取るとは……")
   ShowMessage("せっかくなので、これを着せてあげて下さい。")
   RunCommonEvent(835)
   0()
  404()
  ShowMessageFace("iriasu_fc1",1,0,2,21)
  ShowMessage("\\n<Ilias>それでは行きなさい、勇者ルカ。")
  ShowMessage("これからも、私のために尽くすのですよ……")
  ChangeSwitch(31,31,1)
  ChangeSwitch(32,32,1)
  ChangeSwitch(33,33,1)
  ChangeSwitch(34,34,1)
  241(bytes(0x04,0x08,0x6f,0x3a,0x0d,0x52,0x50,0x47,0x3a,0x3a,0x42,0x47,0x4d,0x08,0x3a,0x0a,0x40,0x6e,0x61,0x6d,0x65,0x49,0x22,0x10,0x73,0x63,0x65,0x6e,0x65,0x5f,0x73,0x69,0x6e,0x70,0x69,0x06,0x3a,0x06,0x45,0x54,0x3a,0x0c,0x40,0x76,0x6f,0x6c,0x75,0x6d,0x65,0x69,0x69,0x3a,0x0b,0x40,0x70,0x69,0x74,0x63,0x68,0x69,0x69))
  Wait(60)
  ShowMessageFace("sonia_fc2",2,0,2,22)
  ShowMessage("\\n<Sonya>ラザロおじさん、戻って来なかったね……")
  Wait(60)
  ChangeVariable(121,121,2,0,1)
  RunCommonEvent(901)
  EndEventProcessing()
  0()



EVENT   5
 PAGE   1
  // condition: switch 33 is ON
  // condition: variable 126 >= 0
  0()
 PAGE   2
  // condition: switch 33 is ON
  // condition: variable 126 >= 1
  0()
 PAGE   3
  // condition: switch 33 is ON
  // condition: variable 126 >= 2
  0()
 PAGE   4
  // condition: switch 33 is ON
  // condition: variable 126 >= 3
  0()
 PAGE   5
  // condition: switch 33 is ON
  // condition: variable 126 >= 4
  0()



EVENT   6
 PAGE   1
  // condition: switch 34 is ON
  // condition: variable 126 >= 0
  0()
 PAGE   2
  // condition: switch 34 is ON
  // condition: variable 126 >= 1
  0()
 PAGE   3
  // condition: switch 34 is ON
  // condition: variable 126 >= 2
  0()
 PAGE   4
  // condition: switch 34 is ON
  // condition: variable 126 >= 3
  0()
 PAGE   5
  // condition: switch 34 is ON
  // condition: variable 126 >= 4
  0()



EVENT   7
 PAGE   1
  ChangeSwitch(49,49,0)
  250(bytes(0x04,0x08,0x6f,0x3a,0x0c,0x52,0x50,0x47,0x3a,0x3a,0x53,0x45,0x08,0x3a,0x0a,0x40,0x6e,0x61,0x6d,0x65,0x49,0x22,0x0a,0x43,0x68,0x65,0x73,0x74,0x06,0x3a,0x06,0x45,0x54,0x3a,0x0b,0x40,0x70,0x69,0x74,0x63,0x68,0x69,0x69,0x3a,0x0c,0x40,0x76,0x6f,0x6c,0x75,0x6d,0x65,0x69,0x55))
  205(0,bytes(0x04,0x08,0x6f,0x3a,0x13,0x52,0x50,0x47,0x3a,0x3a,0x4d,0x6f,0x76,0x65,0x52,0x6f,0x75,0x74,0x65,0x09,0x3a,0x0c,0x40,0x72,0x65,0x70,0x65,0x61,0x74,0x46,0x3a,0x0f,0x40,0x73,0x6b,0x69,0x70,0x70,0x61,0x62,0x6c,0x65,0x46,0x3a,0x0a,0x40,0x77,0x61,0x69,0x74,0x54,0x3a,0x0a,0x40,0x6c,0x69,0x73,0x74,0x5b,0x0b,0x6f,0x3a,0x15,0x52,0x50,0x47,0x3a,0x3a,0x4d,0x6f,0x76,0x65,0x43,0x6f,0x6d,0x6d,0x61,0x6e,0x64,0x07,0x3a,0x0a,0x40,0x63,0x6f,0x64,0x65,0x69,0x29,0x3a,0x10,0x40,0x70,0x61,0x72,0x61,0x6d,0x65,0x74,0x65,0x72,0x73,0x5b,0x00,0x6f,0x3b,0x0a,0x07,0x3b,0x0b,0x69,0x16,0x3b,0x0c,0x5b,0x00,0x6f,0x3b,0x0a,0x07,0x3b,0x0b,0x69,0x14,0x3b,0x0c,0x5b,0x06,0x69,0x08,0x6f,0x3b,0x0a,0x07,0x3b,0x0b,0x69,0x17,0x3b,0x0c,0x5b,0x00,0x6f,0x3b,0x0a,0x07,0x3b,0x0b,0x69,0x14,0x3b,0x0c,0x5b,0x06,0x69,0x08,0x6f,0x3b,0x0a,0x07,0x3b,0x0b,0x69,0x00,0x3b,0x0c,0x5b,0x00))
  ChangeSwitch(45,45,0)
  RunCommonEvent(903)
  ChangeSwitch(49,49,1)
  0()
 PAGE   2
  // condition: switch 45 is ON
  0()



EVENT   8
 PAGE   1
  ChangeSwitch(49,49,0)
  250(bytes(0x04,0x08,0x6f,0x3a,0x0c,0x52,0x50,0x47,0x3a,0x3a,0x53,0x45,0x08,0x3a,0x0a,0x40,0x6e,0x61,0x6d,0x65,0x49,0x22,0x0a,0x43,0x68,0x65,0x73,0x74,0x06,0x3a,0x06,0x45,0x54,0x3a,0x0b,0x40,0x70,0x69,0x74,0x63,0x68,0x69,0x69,0x3a,0x0c,0x40,0x76,0x6f,0x6c,0x75,0x6d,0x65,0x69,0x55))
  205(0,bytes(0x04,0x08,0x6f,0x3a,0x13,0x52,0x50,0x47,0x3a,0x3a,0x4d,0x6f,0x76,0x65,0x52,0x6f,0x75,0x74,0x65,0x09,0x3a,0x0c,0x40,0x72,0x65,0x70,0x65,0x61,0x74,0x46,0x3a,0x0f,0x40,0x73,0x6b,0x69,0x70,0x70,0x61,0x62,0x6c,0x65,0x46,0x3a,0x0a,0x40,0x77,0x61,0x69,0x74,0x54,0x3a,0x0a,0x40,0x6c,0x69,0x73,0x74,0x5b,0x0b,0x6f,0x3a,0x15,0x52,0x50,0x47,0x3a,0x3a,0x4d,0x6f,0x76,0x65,0x43,0x6f,0x6d,0x6d,0x61,0x6e,0x64,0x07,0x3a,0x0a,0x40,0x63,0x6f,0x64,0x65,0x69,0x29,0x3a,0x10,0x40,0x70,0x61,0x72,0x61,0x6d,0x65,0x74,0x65,0x72,0x73,0x5b,0x00,0x6f,0x3b,0x0a,0x07,0x3b,0x0b,0x69,0x16,0x3b,0x0c,0x5b,0x00,0x6f,0x3b,0x0a,0x07,0x3b,0x0b,0x69,0x14,0x3b,0x0c,0x5b,0x06,0x69,0x08,0x6f,0x3b,0x0a,0x07,0x3b,0x0b,0x69,0x17,0x3b,0x0c,0x5b,0x00,0x6f,0x3b,0x0a,0x07,0x3b,0x0b,0x69,0x14,0x3b,0x0c,0x5b,0x06,0x69,0x08,0x6f,0x3b,0x0a,0x07,0x3b,0x0b,0x69,0x00,0x3b,0x0c,0x5b,0x00))
  ChangeSwitch(46,46,0)
  RunCommonEvent(903)
  ChangeSwitch(49,49,1)
  0()
 PAGE   2
  // condition: switch 46 is ON
  0()



EVENT   9
 PAGE   1
  221()
  ChangeSwitch(41,41,1)
  ChangeSwitch(52,52,1)
  ChangeSaveEnabled(1)
  ChangeSwitch(61,61,1)
  ChangeSwitch(62,62,1)
  ChangeSwitch(63,63,1)
  ChangeSwitch(64,64,1)
  ChangeSwitch(65,65,1)
  ChangeSwitch(69,69,1)
  ChangeSwitch(70,70,1)
  ChangeSwitch(71,71,1)
  ChangeSwitch(72,72,1)
  ChangeSwitch(54,54,1)
  ChangeSwitch(66,66,1)
  ChangeSwitch(67,67,1)
  ChangeSwitch(68,68,1)
  ChangeVariable(131,131,0,0,0)
  ChangeVariable(121,121,0,0,0)
  RunCommonEvent(112)
  If(1,121,1,122,1)
   ChangeVariable(122,122,0,1,121)
   0()
  EndIf()
  TeleportPlayer(0,576,14,50,2,2)
  ShowMessageFace("",0,0,2,1)
  ShowMessage("混沌の迷宮リニューアルにつき、過去の迷宮から弾き出された！")
  Wait(60)
  222()
  TemporaryRemoveEvent()
  0()
 PAGE   2
  // condition: switch 1926 is ON
  0()
