// EVENT 0043
Name "Skill: Play 31-40"

ChangeVariable(11,11,0,2,1,5)
If(1,100,0,34,0)
 If(1,11,0,1,0)
  ShowMessageFace("micaelac_fc1",0,0,2,1)
  ShowMessage("【ミカエラちゃん】")
  ShowMessage("……ぎんっ！")
  ShowMessageFace("",0,0,2,2)
  ShowMessage("ミカエラちゃんは流し目を送った……")
  ShowMessage("しかし、睨んでいるようにしか見えない！")
  EndEventProcessing()
  0()
 EndIf()
 If(1,11,0,2,0)
  ShowMessageFace("micaelac_fc1",3,0,2,3)
  ShowMessage("【ミカエラちゃん】")
  ShowMessage("……………………")
  ShowMessageFace("",0,0,2,4)
  ShowMessage("ミカエラちゃんはよからぬ事を考えている……")
  EndEventProcessing()
  0()
 EndIf()
 If(1,11,0,3,0)
  ShowMessageFace("micaelac_fc1",1,0,2,5)
  ShowMessage("【ミカエラちゃん】")
  ShowMessage("…………♪♪♪")
  ShowMessageFace("",0,0,2,6)
  ShowMessage("ミカエラちゃんはにっこり微笑んだ！")
  ShowMessage("しかし何も起きなかった……")
  EndEventProcessing()
  0()
 EndIf()
 If(1,11,0,4,0)
  ShowMessageFace("micaelac_fc1",0,0,2,7)
  ShowMessage("【ミカエラちゃん】")
  ShowMessage("イリアス様みたいに、さばきのいかづち……！")
  355("interrupt_skill(3308)")
  EndEventProcessing()
  0()
 EndIf()
 If(1,11,0,5,0)
  ShowMessageFace("micaelac_fc1",0,0,2,8)
  ShowMessage("【ミカエラちゃん】")
  ShowMessage("やぁぁ――！！")
  355("interrupt_skill(3292)")
  EndEventProcessing()
  0()
 EndIf()
 0()
EndIf()
If(1,100,0,36,0)
 If(1,11,0,1,0)
  ShowMessageFace("rucyfinac_fc1",1,0,2,9)
  ShowMessage("【ルシフィナちゃん】")
  ShowMessage("ららら～♪")
  ShowMessageFace("",0,0,2,10)
  ShowMessage("ルシフィナちゃんはゆかいなダンスを踊った！")
  ShowMessage("しかし何も起きなかった……")
  EndEventProcessing()
  0()
 EndIf()
 If(1,11,0,2,0)
  ShowMessageFace("rucyfinac_fc1",0,0,2,11)
  ShowMessage("【ルシフィナちゃん】")
  ShowMessage("我は明けの明星、曙の子……")
  ShowMessage("地に投げ堕ちた星、勝利を得る者……")
  ShowMessageFace("",0,0,2,12)
  ShowMessage("ルシフィナちゃんは決め台詞の練習をしている……")
  EndEventProcessing()
  0()
 EndIf()
 If(1,11,0,3,0)
  ShowMessageFace("rucyfinac_fc1",3,0,2,13)
  ShowMessage("【ルシフィナちゃん】")
  ShowMessage("……………………")
  ShowMessageFace("",0,0,2,14)
  ShowMessage("ルシフィナちゃんはよからぬ事を考えている……")
  EndEventProcessing()
  0()
 EndIf()
 If(1,11,0,4,0)
  ShowMessageFace("rucyfinac_fc1",0,0,2,15)
  ShowMessage("【ルシフィナちゃん】")
  ShowMessage("あっ、カブトムシ！")
  ShowMessageFace("",0,0,2,16)
  ShowMessage("ルシフィナちゃんはカブトムシをつかまえた！")
  250(bytes(0x04,0x08,0x6f,0x3a,0x0c,0x52,0x50,0x47,0x3a,0x3a,0x53,0x45,0x08,0x3a,0x0a,0x40,0x6e,0x61,0x6d,0x65,0x49,0x22,0x0a,0x49,0x74,0x65,0x6d,0x31,0x06,0x3a,0x06,0x45,0x54,0x3a,0x0b,0x40,0x70,0x69,0x74,0x63,0x68,0x69,0x69,0x3a,0x0c,0x40,0x76,0x6f,0x6c,0x75,0x6d,0x65,0x69,0x55))
  ChangeInventory_Item(448,0,0,1)
  ShowMessageFace("",0,0,2,17)
  ShowMessage("「カブトムシ」を手に入れた！")
  EndEventProcessing()
  0()
 EndIf()
 If(1,11,0,5,0)
  ShowMessageFace("rucyfinac_fc1",0,0,2,18)
  ShowMessage("【ルシフィナちゃん】")
  ShowMessage("びりびり～！！")
  355("interrupt_skill(3308)")
  EndEventProcessing()
  0()
 EndIf()
 0()
EndIf()
0()
